{
	"1.0pre1": {
		"1.19.3": "0.70.0+1.19.3",
		"1.19.2": "0.70.0+1.19.2",
		"1.19.1": "0.58.5+1.19.1",
		"1.19": "0.58.0+1.19"
	},
	"1.0pre2": {
		"1.19.3": "0.70.0+1.19.3",
		"1.19.2": "0.70.0+1.19.2",
		"1.19.1": "0.58.5+1.19.1",
		"1.19": "0.58.0+1.19"
	},
	"1.0": {
		"1.19.3": "0.70.0+1.19.3",
		"1.19.2": "0.70.0+1.19.2",
		"1.19.1": "0.58.5+1.19.1",
		"1.19": "0.58.0+1.19"
	},
	"1.0.1": {
		"1.20.2": "0.89.2+1.20.2",
		"1.20.1": "0.83.0+1.20.1",
		"1.20": "0.83.0+1.20",
		"1.19.4": "0.75.3+1.19.4",
		"1.19.3": "0.70.0+1.19.3",
		"1.19.2": "0.70.0+1.19.2",
		"1.19.1": "0.58.5+1.19.1",
		"1.19": "0.58.0+1.19"
	}
}