{
  "1.0": {
    "1.15": "0.4.24+build.279-1.15",
    "1.14.4": "0.4.1+build.245-1.14"
  },
  "1.0.1": {
    "1.15": "0.4.24+build.279-1.15",
    "1.14.4": "0.4.2+build.246-1.14"
  },
  "1.1": {
    "1.15.2": "0.5.0+build.293-1.15",
    "1.15.1": "0.4.27+build.286-1.15",
    "1.15": "0.4.24+build.279-1.15",
    "1.14.4": "0.4.2+build.246-1.14",
    "20w14a": "0.5.8+build.316-1.16",
    "20w14infinite": "0.5.7+build.2-20w14infinite",
    "20w13a": "0.5.6+build.313-1.16",
    "20w12a": "0.5.5+build.311-1.16",
    "20w11a": "0.5.3+build.308-1.16",
    "20w10a": "0.5.1+build.305-1.16"
  },
  "1.2": {
    "1.16.4": "0.25.1+build.416-1.16",
    "1.16.3": "0.20.2+build.402-1.16",
    "1.16.2": "0.17.2+build.396-1.16",
    "1.16.1": "0.13.1+build.370-1.16",
    "1.16": "0.13.1+build.370-1.16",
    "1.15.2": "0.5.1+build.294-1.15",
    "1.15.1": "0.4.27+build.286-1.15",
    "1.15": "0.4.24+build.279-1.15",
    "1.14.4": "0.4.3+build.247-1.14",
    "1.16.4-rc1": "0.24.3+build.414-1.16",
    "1.16.4-pre2": "0.24.1+build.412-1.16",
    "1.16.4-pre1": "0.24.0+build.411-1.16",
    "1.16.3-rc1": "0.20.1+build.401-1.16",
    "1.16.2-rc2": "0.17.1+build.394-1.16",
    "1.16.2-rc1": "0.16.4+build.392-1.16",
    "1.16.2-pre3": "0.16.4+build.392-1.16",
    "1.16.2-pre2": "0.16.4+build.392-1.16",
    "1.16.2-pre1": "0.16.1+build.387-1.16",
    "20w30a": "0.15.2+build.382-1.16",
    "20w29a": "0.14.6+build.377-1.16",
    "20w28a": "0.14.3+build.374-1.16",
    "20w27a": "0.14.2+build.373-1.16",
    "1.16-rc1": "0.12.4+build.365-1.16",
    "1.16-pre8": "0.12.4+build.365-1.16",
    "1.16-pre7": "0.12.4+build.365-1.16",
    "1.16-pre6": "0.12.3+build.363-1.16",
    "1.16-pre5": "0.12.1+build.361-1.16",
    "1.16-pre4": "0.12.0+build.360-1.16",
    "1.16-pre3": "0.11.9+build.358-1.16",
    "1.16-pre2": "0.11.7+build.356-1.16",
    "1.16-pre1": "0.11.5+build.354-1.16",
    "20w22a": "0.11.2+build.351-1.16",
    "20w21a": "0.10.10+build.347-1.16",
    "20w20a": "0.10.9+build.346-1.16",
    "20w19a": "0.10.8+build.345-1.16",
    "20w18a": "0.10.4+build.340-1.16",
    "20w17a": "0.7.0+build.330-1.16",
    "20w16a": "0.6.0+build.325-1.16",
    "20w15a": "0.5.10+build.320-1.16",
    "20w14a": "0.5.8+build.316-1.16"
  },
  "1.3": {
    "1.19": "0.55.1+1.19",
    "1.18.2": "0.47.8+1.18.2",
    "1.18.1": "0.44.0+1.18",
    "1.18": "0.43.1+1.18",
    "1.17.1": "0.36.1+1.17",
    "1.17": "0.34.9+1.17",
    "1.16.5": "0.29.3+1.16",
    "1.16.4": "0.25.1+build.416-1.16",
    "1.16.3": "0.24.0+build.411-1.16",
    "1.19-rc2": "0.55.0+1.19",
    "1.19-rc1": "0.54.0+1.19",
    "1.19-pre5": "0.54.0+1.19",
    "1.19-pre4": "0.53.4+1.19",
    "1.19-pre3": "0.53.4+1.19",
    "1.19-pre2": "0.53.3+1.19",
    "1.19-pre1": "0.53.2+1.19",
    "22w19a": "0.52.2+1.19",
    "22w18a": "0.52.1+1.19",
    "22w17a": "0.51.3+1.19",
    "22w16b": "0.51.2+1.19",
    "22w15a": "0.50.1+1.19",
    "22w14a": "0.49.6+1.19",
    "22w13oneblockatatime": "0.48.1+22w13oneblockatatime",
    "22w13a": "0.49.5+1.19",
    "22w12a": "0.49.4+1.19",
    "22w11a": "0.49.1+1.19",
    "1.18.2-rc1": "0.47.8+1.18.2",
    "1.18.2-pre3": "0.47.7+1.18.2",
    "1.18.2-pre2": "0.47.6+1.18.2",
    "1.18.2-pre1": "0.47.3+1.18.2",
    "1.19_deep_dark_experimental_snapshot-1": "0.46.6+1.19-experimental",
    "22w07a": "0.47.2+1.18.2",
    "22w06a": "0.47.0+1.18.2",
    "22w05a": "0.46.4+1.18.2",
    "22w03a": "0.46.2+1.18",
    "1.18.1-rc2": "0.44.0+1.18",
    "1.18.1-rc1": "0.44.0+1.18",
    "1.18-rc4": "0.43.1+1.18",
    "1.18-rc3": "0.43.1+1.18",
    "1.18-rc1": "0.43.1+1.18",
    "1.18-pre8": "0.43.0+1.18",
    "1.18-pre7": "0.43.0+1.18",
    "1.18-pre6": "0.42.9+1.18",
    "1.18-pre5": "0.42.7+1.18",
    "1.18-pre4": "0.42.7+1.18",
    "1.18-pre2": "0.42.4+1.18",
    "1.18-pre1": "0.42.2+1.18",
    "21w44a": "0.41.4+1.18",
    "21w43a": "0.41.2+1.18",
    "21w42a": "0.41.1+1.18",
    "21w41a": "0.40.9+1.18",
    "21w40a": "0.40.7+1.18",
    "21w39a": "0.40.5+1.18",
    "21w38a": "0.40.4+1.18",
    "21w37a": "0.40.3+1.18",
    "1.17.1-rc2": "0.36.1+1.17",
    "1.17.1-rc1": "0.36.0+1.17",
    "1.17.1-pre3": "0.36.0+1.17",
    "1.17.1-pre2": "0.36.0+1.17",
    "1.17.1-pre1": "0.36.0+1.17",
    "1.17-rc2": "0.34.9+1.17",
    "1.17-rc1": "0.34.8+1.17",
    "1.17-pre5": "0.34.8+1.17",
    "1.17-pre4": "0.34.8+1.17",
    "1.17-pre3": "0.34.8+1.17",
    "1.17-pre2": "0.34.8+1.17",
    "1.17-pre1": "0.34.8+1.17",
    "21w20a": "0.34.5+1.17",
    "21w19a": "0.34.4+1.17",
    "21w18a": "0.34.2+1.17",
    "21w17a": "0.33.4+1.17",
    "21w16a": "0.33.0+1.17",
    "21w15a": "0.32.8+1.17",
    "21w14a": "0.32.7+1.17",
    "21w13a": "0.32.6+1.17",
    "21w11a": "0.32.4+1.17",
    "21w10a": "0.32.1+1.17",
    "21w08a": "0.31.1+1.17",
    "21w07a": "0.30.5+1.17",
    "21w06a": "0.30.2+1.17",
    "21w05a": "0.30.1+1.17",
    "21w03a": "0.29.5+1.17",
    "20w51a": "0.28.3+1.17",
    "20w49a": "0.27.2+1.17",
    "20w48a": "0.26.4+1.17",
    "20w46a": "0.25.6+1.17",
    "20w45a": "0.25.3+1.17"
  },
  "1.4": {
    "1.20.2": "0.89.0+1.20.2",
    "1.20.1": "0.83.0+1.20.1",
    "1.20": "0.83.0+1.20",
    "1.19.4": "0.75.3+1.19.4",
    "1.19.3": "0.68.1+1.19.3",
    "1.19.2": "0.58.6+1.19.2",
    "1.19.1": "0.58.5+1.19.1",
    "1.19": "0.55.1+1.19",
    "1.18.2": "0.56.0+1.18.2",
    "1.20.2-rc2": "0.88.5+1.20.2",
    "1.20.2-rc1": "0.88.5+1.20.2",
    "1.20.2-pre4": "0.88.4+1.20.2",
    "1.20.2-pre3": "0.88.3+1.20.2",
    "1.20.2-pre2": "0.88.3+1.20.2",
    "1.20.2-pre1": "0.88.2+1.20.2",
    "23w35a": "0.87.2+1.20.2",
    "23w33a": "0.87.1+1.20.2",
    "23w32a": "0.86.2+1.20.2",
    "23w31a": "0.86.1+1.20.2",
    "1.20.1-rc1": "0.83.0+1.20.1",
    "1.20-rc1": "0.83.0+1.20",
    "1.20-pre7": "0.82.1+1.20",
    "1.20-pre6": "0.82.1+1.20",
    "1.20-pre5": "0.81.3+1.20",
    "1.20-pre4": "0.81.2+1.20",
    "1.20-pre3": "0.81.2+1.20",
    "1.20-pre2": "0.81.2+1.20",
    "1.20-pre1": "0.80.2+1.20",
    "23w18a": "0.80.1+1.20",
    "23w17a": "0.79.1+1.20",
    "23w16a": "0.78.1+1.20",
    "23w14a": "0.77.2+1.20",
    "23w13a_or_b": "0.76.3+23w13a_or_b",
    "23w13a": "0.76.2+1.20",
    "23w12a": "0.76.1+1.20",
    "1.19.4-rc3": "0.75.3+1.19.4",
    "1.19.4-rc2": "0.75.3+1.19.4",
    "1.19.4-rc1": "0.75.3+1.19.4",
    "1.19.4-pre4": "0.75.3+1.19.4",
    "1.19.4-pre3": "0.75.2+1.19.4",
    "1.19.4-pre2": "0.75.1+1.19.4",
    "1.19.4-pre1": "0.74.2+1.19.4",
    "23w07a": "0.74.1+1.19.4",
    "23w06a": "0.73.5+1.19.4",
    "23w05a": "0.73.4+1.19.4",
    "23w04a": "0.73.1+1.19.4",
    "23w03a": "0.72.1+1.19.4",
    "1.19.3-rc3": "0.68.1+1.19.3",
    "1.19.3-rc2": "0.68.1+1.19.3",
    "1.19.3-rc1": "0.68.0+1.19.3",
    "1.19.3-pre3": "0.68.0+1.19.3",
    "1.19.3-pre2": "0.67.2+1.19.3",
    "1.19.3-pre1": "0.67.1+1.19.3",
    "22w46a": "0.66.3+1.19.3",
    "22w45a": "0.66.1+1.19.3",
    "22w44a": "0.65.3+1.19.3",
    "22w43a": "0.65.1+1.19.3",
    "22w42a": "0.65.0+1.19.3",
    "1.19.1-rc3": "0.58.5+1.19.1",
    "1.19.1-rc2": "0.58.0+1.19.1",
    "1.19.1-pre6": "0.58.0+1.19.1",
    "1.19.1-pre5": "0.57.3+1.19.1",
    "1.19.1-pre4": "0.57.2+1.19.1",
    "1.19.1-pre3": "0.57.1+1.19.1",
    "1.19.1-pre2": "0.57.1+1.19.1",
    "1.19.1-rc1": "0.56.3+1.19",
    "1.19.1-pre1": "0.56.3+1.19",
    "22w24a": "0.56.0+1.19"
  },
  "1.5": {
    "1.21.3": "0.106.1+1.21.3",
    "1.21.2": "0.106.1+1.21.2",
    "1.21.1": "0.102.0+1.21.1",
    "1.21": "0.100.1+1.21",
    "1.20.6": "0.97.8+1.20.6",
    "1.20.5": "0.97.5+1.20.5",
    "1.20.4": "0.91.1+1.20.4",
    "1.20.3": "0.91.1+1.20.3",
    "1.20.2": "0.89.2+1.20.2",
    "1.20.1": "0.89.0+1.20.1",
    "1.21.4-rc1": "0.110.2+1.21.4",
    "1.21.4-pre3": "0.110.0+1.21.4",
    "1.21.4-pre2": "0.110.0+1.21.4",
    "1.21.4-pre1": "0.109.1+1.21.4",
    "24w46a": "0.108.1+1.21.4",
    "24w45a": "0.107.2+1.21.4",
    "24w44a": "0.107.0+1.21.4",
    "1.21.2-rc2": "0.106.1+1.21.2",
    "1.21.2-rc1": "0.106.0+1.21.2",
    "1.21.2-pre5": "0.106.0+1.21.2",
    "1.21.2-pre4": "0.105.4+1.21.2",
    "1.21.2-pre3": "0.105.3+1.21.2",
    "1.21.2-pre2": "0.105.3+1.21.2",
    "1.21.2-pre1": "0.105.3+1.21.2",
    "24w40a": "0.105.2+1.21.2",
    "24w39a": "0.105.1+1.21.2",
    "24w38a": "0.104.2+1.21.2",
    "24w37a": "0.104.1+1.21.2",
    "24w36a": "0.103.2+1.21.2",
    "24w35a": "0.103.1+1.21.2",
    "24w34a": "0.102.3+1.21.2",
    "24w33a": "0.102.2+1.21.2",
    "1.21.1-rc1": "0.101.2+1.21.1",
    "1.21-rc1": "0.100.0+1.21",
    "1.21-pre4": "0.99.5+1.21",
    "1.21-pre3": "0.99.5+1.21",
    "1.21-pre2": "0.99.4+1.21",
    "1.21-pre1": "0.99.2+1.21",
    "24w21b": "0.99.1+1.21",
    "24w20a": "0.98.2+1.21",
    "24w19b": "0.98.1+1.21",
    "24w18a": "0.97.9+1.21",
    "1.20.6-rc1": "0.97.6+1.20.6",
    "1.20.5-rc3": "0.97.5+1.20.5",
    "1.20.5-rc2": "0.97.3+1.20.5",
    "1.20.5-rc1": "0.97.3+1.20.5",
    "1.20.5-pre4": "0.97.3+1.20.5",
    "1.20.5-pre3": "0.97.2+1.20.5",
    "1.20.5-pre2": "0.97.1+1.20.5",
    "1.20.5-pre1": "0.96.15+1.20.5",
    "24w14a": "0.96.14+1.20.5",
    "24w14potato": "0.96.14+24w14potato",
    "24w13a": "0.96.13+1.20.5",
    "24w12a": "0.96.12+1.20.5",
    "24w11a": "0.96.9+1.20.5",
    "24w10a": "0.96.8+1.20.5",
    "24w09a": "0.96.6+1.20.5",
    "24w07a": "0.96.2+1.20.5",
    "24w06a": "0.96.0+1.20.5",
    "24w05a": "0.95.4+1.20.5",
    "24w04a": "0.95.2+1.20.5",
    "24w03b": "0.95.1+1.20.5",
    "23w51b": "0.91.4+1.20.5",
    "1.20.4-rc1": "0.91.1+1.20.4",
    "1.20.3-rc1": "0.91.1+1.20.3",
    "1.20.3-pre4": "0.91.1+1.20.3",
    "1.20.3-pre3": "0.91.1+1.20.3",
    "1.20.3-pre2": "0.90.12+1.20.3",
    "1.20.3-pre1": "0.90.11+1.20.3",
    "23w46a": "0.90.9+1.20.3",
    "23w45a": "0.90.8+1.20.3",
    "23w44a": "0.90.6+1.20.3",
    "23w43a": "0.90.5+1.20.3",
    "23w42a": "0.90.2+1.20.3",
    "23w41a": "0.90.1+1.20.3",
    "23w40a": "0.89.4+1.20.3"
  }
}