{
  "1.0": {
    "1.14.4": 2835708
  },
  "1.1": {
    "1.15": 2840958,
    "1.14.4": 2838909
  },
  "1.1.1": {
    "1.15.2": 2896836,
    "1.15.1": 2896833,
    "1.15": 2891823,
    "1.14.4": 2891825,
    "20w11a": 2898927,
    "20w10a": 2896839
  },
  "1.2": {
    "1.16.1": 2987483,
    "1.16": 2986572,
    "1.15.2": 2899461,
    "1.15.1": 2899460,
    "1.15": 2899462,
    "1.14.4": 2899458,
    "20w28a": 2999780,
    "20w27a": 2994101,
    "1.16-rc1": 2983210,
    "1.16-pre8": 2983186,
    "1.16-pre7": 2982212,
    "1.16-pre6": 2981412,
    "1.16-pre5": 2978719,
    "1.16-pre4": 2977997,
    "1.16-pre3": 2977713,
    "1.16-pre2": 2973213,
    "1.16-pre1": 2973212,
    "20w22a": 2968396,
    "20w21a": 2961808,
    "20w20a": 2956010,
    "20w19a": 2949980,
    "20w18a": 2943775,
    "20w17a": 2937712,
    "20w16a": 2930918,
    "20w15a": 2924464,
    "20w14a": 2920200,
    "20w14infinite": 2919252,
    "20w13a": 2912637,
    "20w12a": 2905347,
    "20w11a": 2899463
  },
  "1.3": {
    "1.16.1": 3002085,
    "1.15.2": 3002086,
    "1.14.4": 3002090,
    "1.16.2-rc1": 3026218,
    "1.16.2-pre3": 3025287,
    "1.16.2-pre2": 3024429,
    "1.16.2-pre1": 3018209,
    "20w30a": 3011866,
    "20w29a": 3006762,
    "20w28a": 3006474
  },
  "1.4": {
    "1.16.4": 3100113,
    "1.16.3": 3053949,
    "1.16.2": 3029606,
    "1.16.1": 3027870,
    "1.15.2": 3027873,
    "1.14.4": 3027871,
    "1.16.4-rc1": 3095441,
    "1.16.4-pre2": 3090477,
    "1.16.4-pre1": 3084431,
    "1.16.3-rc1": 3051788,
    "1.16.2-rc2": 3028546,
    "1.16.2-rc1": 3027874
  },
  "1.5": {
    "1.18.1": 3557419,
    "1.18": 3541829,
    "1.17.1": 3379124,
    "1.17": 3343657,
    "1.16.5": 3171780,
    "1.16.4": 3104266,
    "1.16.3": 3104265,
    "1.18.1-rc2": 3555015,
    "1.18.1-rc1": 3554852,
    "1.18-rc4": 3541594,
    "1.18-rc3": 3538056,
    "1.18-rc1": 3537179,
    "1.18-pre8": 3536956,
    "1.18-pre7": 3535357,
    "1.18-pre6": 3534410,
    "1.18-pre5": 3530686,
    "1.18-pre4": 3530411,
    "1.18-pre2": 3527983,
    "1.18-pre1": 3522935,
    "21w44a": 3516686,
    "21w43a": 3508226,
    "21w42a": 3499385,
    "21w41a": 3490170,
    "21w40a": 3484132,
    "21w39a": 3478350,
    "21w38a": 3469539,
    "21w37a": 3469492,
    "1.17.1-rc2": 3377631,
    "1.17.1-rc1": 3376176,
    "1.17.1-pre3": 3376149,
    "1.17.1-pre2": 3369265,
    "1.17.1-pre1": 3360177,
    "1.17-rc2": 3342075,
    "1.17-rc1": 3337732,
    "1.17-pre5": 3336808,
    "1.17-pre4": 3335434,
    "1.17-pre3": 3333893,
    "1.17-pre2": 3332348,
    "1.17-pre1": 3327253,
    "21w20a": 3316466,
    "21w19a": 3307488,
    "21w18a": 3299727,
    "21w17a": 3292970,
    "21w16a": 3284981,
    "21w15a": 3276207,
    "21w14a": 3268543,
    "21w13a": 3257709,
    "21w11a": 3243033,
    "21w10a": 3235784,
    "21w08a": 3216131,
    "21w07a": 3207707,
    "21w06a": 3199535,
    "21w05a": 3192714,
    "21w03a": 3176025,
    "20w51a": 3141285,
    "20w49a": 3128748,
    "20w48a": 3123838,
    "20w46a": 3109438,
    "20w45a": 3104270
  },
  "1.6": {
    "1.18.1": 3568210,
    "1.18": 3568214,
    "1.17.1": 3568219
  },
  "1.6.1": {
    "1.20.4": 4936721,
    "1.20.3": 4929705,
    "1.20.2": 4762132,
    "1.20.1": 4582463,
    "1.20": 4571916,
    "1.19.4": 4437081,
    "1.19.3": 4142136,
    "1.19.2": 3921699,
    "1.19.1": 3903177,
    "1.19": 3820980,
    "1.18.2": 3667477,
    "1.18.1": 3569199,
    "1.18": 3569195,
    "1.17.1": 3569190,
    "1.20.4-rc1": 4933589,
    "1.20.3-rc1": 4915023,
    "1.20.3-pre4": 4909113,
    "1.20.3-pre3": 4906477,
    "1.20.3-pre2": 4891107,
    "1.20.3-pre1": 4884750,
    "23w46a": 4873304,
    "23w45a": 4852162,
    "23w44a": 4832730,
    "23w43a": 4816697,
    "23w42a": 4804911,
    "23w41a": 4793780,
    "23w40a": 4783460,
    "1.20.2-rc2": 4757706,
    "1.20.2-rc1": 4753475,
    "1.20.2-pre4": 4750912,
    "1.20.2-pre3": 4749446,
    "1.20.2-pre2": 4742774,
    "1.20.2-pre1": 4739576,
    "23w35a": 4732437,
    "23w33a": 4709773,
    "23w32a": 4691048,
    "23w31a": 4690611,
    "1.20.1-rc1": 4576780,
    "1.20-rc1": 4560611,
    "1.20-pre7": 4558868,
    "1.20-pre5": 4549341,
    "1.20-pre4": 4543589,
    "1.20-pre3": 4543574,
    "1.20-pre2": 4539865,
    "1.20-pre1": 4531622,
    "23w18a": 4521509,
    "23w17a": 4509589,
    "23w16a": 4501269,
    "23w14a": 4478168,
    "23w13a": 4465207,
    "23w12a": 4452281,
    "1.19.4-rc3": 4437026,
    "1.19.4-rc2": 4432534,
    "1.19.4-rc1": 4429866,
    "1.19.4-pre4": 4428513,
    "1.19.4-pre3": 4417372,
    "1.19.4-pre2": 4414594,
    "1.19.4-pre1": 4409040,
    "23w07a": 4397600,
    "23w06a": 4388235,
    "23w05a": 4377312,
    "23w04a": 4364729,
    "23w03a": 4352740,
    "1.19.3-rc3": 4139987,
    "1.19.3-rc2": 4136277,
    "1.19.3-rc1": 4126330,
    "1.19.3-pre3": 4124805,
    "1.19.3-pre2": 4111683,
    "1.19.3-pre1": 4104854,
    "22w46a": 4091164,
    "22w45a": 4077123,
    "22w44a": 4065252,
    "22w43a": 4055127,
    "22w42a": 4046395,
    "1.19.1-rc3": 3903077,
    "1.19.1-rc2": 3895608,
    "1.19.1-pre6": 3895369,
    "1.19.1-pre5": 3895172,
    "1.19.1-pre4": 3893568,
    "1.19.1-pre3": 3892135,
    "1.19.1-pre2": 3891864,
    "1.19.1-rc1": 3847493,
    "1.19.1-pre1": 3847419,
    "22w24a": 3837497,
    "1.19-rc2": 3815918,
    "1.19-rc1": 3814710,
    "1.19-pre5": 3813566,
    "1.19-pre4": 3810776,
    "1.19-pre3": 3808231,
    "1.19-pre2": 3802588,
    "1.19-pre1": 3802268,
    "22w19a": 3789429,
    "22w18a": 3780848,
    "22w17a": 3771928,
    "22w16b": 3763741,
    "22w15a": 3750611,
    "22w14a": 3739629,
    "22w13oneblockatatime": 3727752,
    "22w13a": 3726444,
    "22w12a": 3711664,
    "22w11a": 3698846,
    "1.18.2-rc1": 3662135,
    "1.18.2-pre3": 3659380,
    "1.18.2-pre2": 3656512,
    "1.18.2-pre1": 3652074,
    "1.19_deep_dark_experimental_snapshot-1": 3651179,
    "22w07a": 3650259,
    "22w06a": 3645192,
    "22w05a": 3634478,
    "22w03a": 3614374
  },
  "1.7": {
    "1.20.4": 4954434,
    "1.20.3": 4954428,
    "1.20.2": 4954422,
    "1.20.1": 4954413,
    "1.20.5-pre2": 5265510,
    "1.20.5-pre1": 5252115,
    "24w14a": 5232970,
    "24w14potato": 5227663,
    "24w13a": 5218629,
    "24w12a": 5198896,
    "24w11a": 5182984,
    "24w10a": 5162768,
    "24w09a": 5160340,
    "24w07a": 5110443,
    "24w06a": 5096382,
    "24w05a": 5074114,
    "24w04a": 5058258,
    "24w03b": 5057132,
    "23w51b": 4969262
  },
  "1.8": {
    "1.20.6": 5301562,
    "1.20.5": 5285001,
    "1.20.6-rc1": 5293148,
    "1.20.5-rc3": 5282631,
    "1.20.5-rc2": 5274729,
    "1.20.5-rc1": 5272487,
    "1.20.5-pre4": 5270382,
    "1.20.5-pre3": 5268713
  },
  "1.8.1": {
    "1.21.1": 5608050,
    "1.21": 5423999,
    "1.20.6": 5306920,
    "1.20.5": 5306925,
    "1.21.1-rc1": 5605886,
    "1.21-rc1": 5415621,
    "1.21-pre4": 5406658,
    "1.21-pre3": 5401198,
    "1.21-pre2": 5387167,
    "1.21-pre1": 5382316,
    "24w21b": 5366896,
    "24w20a": 5349319,
    "24w19b": 5333059,
    "24w18a": 5320560
  },
  "1.9": {
    "1.21.1": 5629672,
    "1.21": 5629682
  },
  "1.10": {
    "1.21.3": 5837627,
    "1.21.2": 5833916,
    "1.21.1": 5632723,
    "1.21.4-rc1": 5944850,
    "1.21.4-pre3": 5939348,
    "1.21.4-pre2": 5937206,
    "1.21.4-pre1": 5922948,
    "24w46a": 5900809,
    "24w45a": 5882556,
    "24w44a": 5861001,
    "1.21.2-rc2": 5831425,
    "1.21.2-rc1": 5819751,
    "1.21.2-pre5": 5817026,
    "1.21.2-pre4": 5814349,
    "1.21.2-pre3": 5802893,
    "1.21.2-pre2": 5800528,
    "1.21.2-pre1": 5795423,
    "24w40a": 5777733,
    "24w39a": 5758200,
    "24w38a": 5735206,
    "24w37a": 5714317,
    "24w36a": 5695322,
    "24w35a": 5675299,
    "24w34a": 5652544,
    "24w33a": 5644904
  }
}